{"date":1671630488479,"message":"test","messageId":1,"user":"user_1"},
{"date":1671630489435,"message":"test","messageId":2,"user":"user_1"},
{"date":1671630489920,"message":"test","messageId":3,"user":"user_1"},
{"date":1671630490347,"message":"test","messageId":4,"user":"user_1"},
{"date":1671630526424,"message":"test","messageId":5,"user":"user_1"},
{"date":1671630526795,"message":"test","messageId":6,"user":"user_1"},
{"date":1671630527199,"message":"test","messageId":7,"user":"user_1"},
{"date":1671630527689,"message":"test","messageId":8,"user":"user_1"},
{"date":1671630528087,"message":"test","messageId":9,"user":"user_1"},
{"date":1671630773228,"message":"test","messageId":10,"user":"user_1"},
{"date":1671630774396,"message":"test","messageId":11,"user":"user_1"}